{
  "images" : [
    {
      "idiom" : "iphone",
      "filename" : "shovel.pdf"
    }
  ],
  "info" : {
    "version" : 1,
    "author" : "xcode"
  },
  "properties" : {
    "auto-scaling" : "auto",
    "compression-type" : "automatic",
    "preserves-vector-representation" : true,
    "template-rendering-intent" : "original"
  }
}